Codes/Verilog/build/tb_mux8to1.vcd
$date
	Fri Sep 26 10:05:50 2025
$end
$version
	Icarus Verilog
$end
$timescale
	1ns
$end
$scope module tb_mux8to1 $end
$var wire 1 ! Y $end
$var reg 8 " I [7:0] $end
$var reg 3 # S [2:0] $end
$scope module uut $end
$var wire 8 $ I [7:0] $end
$var wire 3 % S [2:0] $end
$var wire 1 ! Y $end
$upscope $end
$upscope $end
$enddefinitions $end
$comment Show the parameter values. $end
$dumpall
$end
#0
$dumpvars
b0 %
b10101010 $
b0 #
b10101010 "
0!
$end
#10
1!
b1 #
b1 %
#20
0!
b10 #
b10 %
#30
1!
b11 #
b11 %
#40
0!
b100 #
b100 %
#50
1!
b101 #
b101 %
#60
0!
b110 #
b110 %
#70
1!
b111 #
b111 %
